Order-Id,Item-id,Product-Id,Quantity,Sales-Id,Customer-Id,Sales-Price-Per-Prod,Market-Segment
0,0,13,4,6,8,101,software
1,1,9,15,8,20,62,realestate
2,2,3,5,0,5,196,retail
3,3,16,28,7,2,150,pharmaceutical
4,4,2,10,3,18,211,pharmaceutical
5,5,1,1,2,24,219,education
6,6,1,15,9,28,167,realestate
7,7,12,3,8,17,101,software
8,8,18,23,2,2,60,financial
9,9,1,2,0,5,160,education
10,10,19,4,6,10,101,software
11,11,12,5,7,26,107,software
12,12,0,4,1,8,119,realestate
13,13,16,13,0,25,151,financial
14,14,10,10,9,3,125,software
15,15,18,8,5,11,96,education
16,16,6,5,9,0,82,realestate
17,17,14,14,9,16,197,financial
18,18,16,19,4,17,149,financial
19,19,7,24,9,8,147,realestate
20,20,7,5,9,21,164,retail
21,21,6,9,9,23,66,pharmaceutical
22,22,18,25,1,4,95,realestate
23,23,16,13,5,29,161,realestate
24,24,13,20,7,13,130,education
25,25,9,7,5,21,89,education
26,26,19,29,7,23,81,retail
27,27,0,0,0,21,119,software
28,28,17,1,6,25,194,financial
29,29,5,23,2,10,129,education
30,30,4,22,9,8,134,pharmaceutical
31,31,3,23,7,27,192,education
32,32,4,10,7,26,163,financial
33,33,1,2,9,27,195,software
34,34,17,13,1,3,195,software
35,35,0,7,9,7,121,education
36,36,3,27,4,10,202,software
37,37,9,13,0,7,83,retail
38,38,10,7,4,10,120,education
39,39,13,22,0,17,129,software
40,40,7,24,9,6,151,education
41,41,4,11,3,27,135,education
42,42,3,27,6,11,180,financial
43,43,4,5,8,15,157,software
44,44,18,14,2,21,93,retail
45,45,17,28,8,22,196,retail
46,46,9,10,1,17,100,financial
47,47,11,17,2,21,91,financial
48,48,2,12,7,6,219,financial
49,49,8,27,7,3,113,retail
50,50,19,3,6,16,87,retail
51,51,6,8,1,10,76,retail
52,52,13,4,0,20,121,pharmaceutical
53,53,10,5,4,13,110,education
54,54,17,20,5,0,204,financial
55,55,9,26,4,11,102,pharmaceutical
56,56,3,11,4,18,172,software
57,57,7,3,8,11,151,financial
58,58,1,9,2,24,222,education
59,59,0,4,4,17,119,pharmaceutical
60,60,17,4,7,15,194,software
61,61,5,20,4,2,132,realestate
62,62,19,0,8,14,110,realestate
63,63,10,2,1,7,116,retail
64,64,2,14,9,5,216,pharmaceutical
65,65,1,10,7,18,174,retail
66,66,6,22,3,14,43,pharmaceutical
67,67,18,28,3,22,94,software
68,68,3,25,6,13,204,software
69,69,7,8,6,4,135,realestate
70,70,9,5,5,5,71,pharmaceutical
71,71,3,24,7,22,186,software
72,72,3,3,4,7,175,financial
73,73,11,1,7,4,115,education
74,74,19,28,1,17,73,pharmaceutical
75,75,11,10,0,8,141,realestate
76,76,1,9,6,21,174,financial
77,77,2,5,6,16,203,software
78,78,1,21,2,6,226,financial
79,79,18,4,7,13,81,software
80,80,8,3,5,13,181,realestate
81,81,19,2,7,14,110,education
82,82,3,18,5,3,198,pharmaceutical
83,83,0,7,0,10,122,software
84,84,17,12,0,27,189,software
85,85,11,29,1,13,137,education
86,86,2,23,3,14,203,software
87,87,16,3,0,12,156,financial
88,88,7,4,3,13,123,pharmaceutical
89,89,1,13,9,0,203,pharmaceutical
90,90,16,13,5,13,155,education
91,91,10,11,7,24,154,software
92,92,8,0,0,26,196,education
93,93,7,15,4,13,135,realestate
94,94,12,21,8,27,108,pharmaceutical
95,95,10,13,0,21,151,financial
96,96,16,26,2,26,151,pharmaceutical
97,97,9,0,2,2,85,education
98,98,13,8,8,0,128,software
99,99,7,6,1,20,136,realestate
100,100,0,6,9,28,120,financial
101,101,0,21,3,13,119,education
102,102,12,1,4,20,107,pharmaceutical
103,103,9,25,4,2,54,financial
104,104,0,23,6,1,121,education
105,105,3,13,8,9,214,retail
106,106,15,13,4,0,178,software
107,107,13,17,6,18,88,education
108,108,9,20,6,25,43,financial
109,109,2,19,5,9,218,retail
110,110,1,13,1,6,223,retail
111,111,15,29,1,0,203,realestate
112,112,18,27,2,15,61,pharmaceutical
113,113,1,28,6,11,201,education
114,114,15,19,1,12,202,education
115,115,11,9,3,6,136,retail
116,116,7,12,2,0,153,retail
117,117,4,24,1,27,131,education
118,118,15,21,6,14,213,realestate
119,119,18,16,9,16,62,retail
120,120,18,21,1,14,66,retail
121,121,12,25,8,25,79,retail
122,122,13,20,0,6,142,software
123,123,13,4,1,1,122,software
124,124,10,8,1,12,114,realestate
125,125,10,1,1,7,96,retail
126,126,16,21,2,24,148,realestate
127,127,16,8,7,10,156,realestate
128,128,0,6,0,12,122,software
129,129,5,0,3,26,111,realestate
130,130,8,22,8,13,198,education
131,131,5,16,9,28,132,financial
132,132,12,28,5,9,104,software
133,133,18,23,5,4,59,pharmaceutical
134,134,18,25,6,27,87,realestate
135,135,7,21,3,24,125,retail
136,136,13,11,1,29,96,software
137,137,8,14,7,26,174,education
138,138,15,21,5,26,208,software
139,139,2,23,8,8,207,pharmaceutical
140,140,10,5,3,10,144,software
141,141,2,22,7,16,219,education
142,142,13,10,9,3,88,realestate
143,143,9,24,0,3,81,retail
144,144,18,22,9,1,75,realestate
145,145,12,23,2,17,103,education
146,146,4,1,2,19,178,retail
147,147,6,17,1,11,53,software
148,148,15,21,5,15,190,education
149,149,13,24,1,12,129,pharmaceutical
150,150,14,12,8,16,183,financial
151,151,7,9,9,1,119,financial
152,152,3,23,1,0,193,financial
153,153,7,6,3,7,160,financial
154,154,0,29,0,14,123,retail
155,155,9,15,0,10,78,education
156,156,15,24,5,20,189,education
157,157,15,9,2,20,179,software
158,158,14,16,0,17,189,pharmaceutical
159,159,2,13,1,29,208,retail
160,160,9,26,9,10,70,software
161,161,1,4,4,7,177,pharmaceutical
162,162,4,18,5,3,185,education
163,163,13,29,0,28,99,pharmaceutical
164,164,8,17,0,24,150,retail
165,165,11,23,1,14,126,retail
166,166,18,9,8,13,62,financial
167,167,3,19,2,3,211,financial
168,168,19,17,0,25,107,software
169,169,1,14,1,8,224,software
170,170,18,20,8,24,99,education
171,171,2,4,7,3,208,pharmaceutical
172,172,12,16,9,14,83,pharmaceutical
173,173,0,4,1,17,120,retail
174,174,10,2,8,1,116,financial
175,175,8,28,2,24,192,realestate
176,176,12,24,4,21,87,financial
177,177,17,25,0,9,187,software
178,178,18,1,4,8,78,pharmaceutical
179,179,5,22,4,2,98,pharmaceutical
180,180,13,2,9,18,126,education
181,181,15,20,4,24,180,pharmaceutical
182,182,6,28,2,23,45,pharmaceutical
183,183,14,11,9,17,194,software
184,184,11,2,3,10,137,software
185,185,17,10,5,28,189,realestate
186,186,4,15,3,24,175,pharmaceutical
187,187,14,23,2,25,195,pharmaceutical
188,188,7,28,4,14,121,education
189,189,13,17,4,22,94,realestate
190,190,6,15,7,27,41,financial
191,191,12,16,3,24,86,software
192,192,9,20,2,9,87,realestate
193,193,0,23,8,8,121,retail
194,194,16,7,4,21,154,financial
195,195,7,23,3,21,124,retail
196,196,17,12,0,5,188,education
197,197,10,17,1,25,153,retail
198,198,6,23,6,26,51,financial
199,199,14,25,0,5,189,realestate
200,200,5,2,4,4,105,realestate
201,201,4,21,2,12,171,realestate
202,202,4,16,3,7,148,education
203,203,13,21,8,21,87,education
204,204,15,12,6,26,187,education
205,205,2,11,2,16,213,software
206,206,14,5,2,3,184,realestate
207,207,17,22,3,8,203,education
208,208,7,0,4,20,123,software
209,209,12,9,2,26,105,software
210,210,8,14,0,18,195,pharmaceutical
211,211,19,27,5,3,101,realestate
212,212,8,25,9,19,193,pharmaceutical
213,213,1,9,1,11,236,education
214,214,3,27,5,26,195,pharmaceutical
215,215,15,24,7,9,212,software
216,216,12,21,4,23,103,realestate
217,217,13,21,2,5,106,retail
218,218,10,7,1,28,149,pharmaceutical
219,219,4,13,3,12,172,software
220,220,5,3,0,6,123,pharmaceutical
221,221,16,18,2,13,150,education
222,222,8,4,6,12,192,pharmaceutical
223,223,1,8,2,3,182,education
224,224,12,0,6,26,101,retail
225,225,7,17,8,17,144,financial
226,226,2,26,1,12,208,education
227,227,0,9,4,24,121,pharmaceutical
228,228,5,28,4,8,115,software
229,229,8,16,8,27,141,software
230,230,18,23,8,22,66,software
231,231,6,13,7,28,66,realestate
232,232,0,21,3,14,122,retail
233,233,11,15,7,2,113,pharmaceutical
234,234,19,18,2,26,97,software
235,235,11,29,5,5,105,financial
236,236,3,9,2,19,206,financial
237,237,11,27,1,12,108,realestate
238,238,15,26,4,12,188,software
239,239,3,20,8,18,208,pharmaceutical
240,240,11,19,0,15,101,software
241,241,8,13,7,9,118,pharmaceutical
242,242,3,3,8,3,206,software
243,243,18,23,1,7,96,realestate
244,244,6,23,2,0,82,retail
245,245,15,11,8,19,187,pharmaceutical
246,246,10,27,0,3,153,realestate
247,247,3,28,1,1,169,software
248,248,5,21,1,16,132,retail
249,249,0,29,1,24,123,financial
250,250,14,16,7,8,185,retail
251,251,7,5,5,16,121,software
252,252,3,26,5,0,171,retail
253,253,8,23,3,16,178,pharmaceutical
254,254,4,10,8,27,147,pharmaceutical
255,255,18,23,9,4,89,realestate
256,256,10,5,3,28,108,realestate
257,257,10,4,0,9,90,financial
258,258,11,12,4,8,99,retail
259,259,18,14,5,4,86,pharmaceutical
260,260,17,8,5,24,186,pharmaceutical
261,261,4,1,5,16,143,education
262,262,0,9,0,26,120,realestate
263,263,3,29,3,7,209,financial
264,264,19,4,6,0,80,realestate
265,265,15,16,2,10,216,realestate
266,266,1,1,5,0,220,retail
267,267,12,13,6,4,83,software
268,268,11,20,6,3,109,education
269,269,16,20,6,17,147,pharmaceutical
270,270,19,29,2,5,107,education
271,271,16,13,2,12,161,retail
272,272,9,19,3,16,65,education
273,273,10,20,4,24,98,software
274,274,2,14,8,9,216,retail
275,275,13,12,8,1,91,financial
276,276,9,20,1,21,56,education
277,277,9,7,9,2,87,software
278,278,9,12,6,22,54,education
279,279,2,12,6,10,218,software
280,280,0,28,3,7,120,software
281,281,6,21,4,11,44,pharmaceutical
282,282,15,4,2,16,199,pharmaceutical
283,283,7,18,7,11,158,retail
284,284,12,23,4,22,81,pharmaceutical
285,285,18,4,1,9,72,realestate
286,286,18,3,4,9,92,realestate
287,287,6,3,5,28,54,pharmaceutical
288,288,16,20,8,4,152,software
289,289,5,15,5,9,114,education
290,290,18,20,7,2,55,software
291,291,10,1,3,18,124,financial
292,292,9,11,1,28,81,software
293,293,14,22,5,9,191,software
294,294,14,1,9,19,187,realestate
295,295,5,13,9,27,137,education
296,296,3,17,4,2,207,realestate
297,297,4,13,8,11,162,education
298,298,15,20,4,6,195,software
299,299,8,2,4,12,190,education
300,300,13,11,2,18,122,realestate
301,301,8,10,1,10,154,software
302,302,0,9,9,4,122,pharmaceutical
303,303,13,13,3,4,131,retail
304,304,16,5,3,18,149,realestate
305,305,15,0,3,6,201,retail
306,306,7,14,3,0,153,retail
307,307,16,5,0,18,153,software
308,308,7,26,2,8,134,retail
309,309,0,14,3,7,122,financial
310,310,2,8,1,6,200,financial
311,311,15,23,2,12,189,financial
312,312,5,23,6,1,133,pharmaceutical
313,313,11,21,4,4,118,software
314,314,2,10,4,7,205,education
315,315,4,1,5,9,171,retail
316,316,3,22,1,24,191,education
317,317,4,10,3,8,155,education
318,318,3,9,4,20,180,financial
319,319,2,28,8,26,216,financial
320,320,18,29,9,27,76,pharmaceutical
321,321,15,20,4,21,183,retail
322,322,4,23,0,18,172,retail
323,323,5,27,9,20,118,retail
324,324,8,25,8,10,161,retail
325,325,10,24,0,28,102,realestate
326,326,6,19,4,8,39,pharmaceutical
327,327,6,15,8,7,39,education
328,328,2,7,7,7,212,education
329,329,13,15,1,15,144,software
330,330,8,12,6,11,110,pharmaceutical
331,331,11,19,0,18,138,retail
332,332,11,26,2,24,116,pharmaceutical
333,333,19,23,7,20,80,education
334,334,6,28,4,9,61,software
335,335,0,23,5,20,122,realestate
336,336,1,6,3,15,163,pharmaceutical
337,337,12,3,8,6,109,financial
338,338,11,11,9,3,98,financial
339,339,11,19,2,15,109,retail
340,340,2,26,9,9,216,retail
341,341,7,10,4,10,156,retail
342,342,0,2,8,28,122,realestate
343,343,18,3,9,11,66,pharmaceutical
344,344,16,10,8,28,152,realestate
345,345,10,17,1,27,155,retail
346,346,11,16,8,16,103,realestate
347,347,10,3,4,9,89,software
348,348,17,22,8,2,192,pharmaceutical
349,349,13,16,9,1,107,software
350,350,5,3,9,15,106,financial
351,351,18,22,7,9,103,retail
352,352,2,24,7,25,201,retail
353,353,9,1,3,28,92,pharmaceutical
354,354,9,12,0,16,85,software
355,355,17,16,8,20,205,retail
356,356,16,12,0,28,157,retail
357,357,9,9,4,29,97,retail
358,358,18,11,7,15,57,financial
359,359,13,18,8,18,146,financial
360,360,15,9,4,20,193,education
361,361,15,5,6,13,196,retail
362,362,5,10,1,0,124,software
363,363,9,20,8,21,56,pharmaceutical
364,364,10,0,7,7,97,retail
365,365,13,2,5,21,136,financial
366,366,11,13,1,5,118,education
367,367,1,1,9,12,157,education
368,368,19,4,2,4,75,software
369,369,8,7,3,1,124,pharmaceutical
370,370,13,29,1,25,118,pharmaceutical
371,371,18,19,5,12,53,education
372,372,19,11,8,19,71,pharmaceutical
373,373,6,12,6,27,76,realestate
374,374,10,5,0,13,150,pharmaceutical
375,375,12,5,3,24,100,software
376,376,10,16,6,3,145,retail
377,377,4,6,8,29,139,retail
378,378,14,0,2,25,181,retail
379,379,5,11,5,8,95,pharmaceutical
380,380,7,23,2,16,159,retail
381,381,6,28,8,6,79,retail
382,382,14,21,4,2,187,pharmaceutical
383,383,4,28,8,7,153,software
384,384,6,23,1,21,66,pharmaceutical
385,385,3,6,2,24,194,realestate
386,386,12,20,3,11,92,realestate
387,387,0,27,4,15,119,education
388,388,0,25,7,16,119,financial
389,389,13,14,5,18,93,financial
390,390,5,15,4,24,127,software
391,391,0,20,3,9,122,financial
392,392,7,5,4,24,166,realestate
393,393,7,18,5,20,160,retail
394,394,18,29,3,4,95,financial
395,395,2,12,3,27,209,pharmaceutical
396,396,19,22,9,3,106,realestate
397,397,7,9,2,17,160,financial
398,398,0,24,7,11,120,retail
399,399,3,26,5,17,182,realestate
400,400,6,17,6,6,66,financial
401,401,1,12,2,26,204,pharmaceutical
402,402,15,9,9,4,212,software
403,403,13,16,5,9,105,pharmaceutical
404,404,10,13,4,29,101,education
405,405,10,5,7,20,137,retail
406,406,3,29,4,1,175,financial
407,407,9,21,8,15,70,retail
408,408,2,20,2,6,208,retail
409,409,9,0,6,4,49,realestate
410,410,6,15,2,29,68,retail
411,411,17,21,2,9,201,pharmaceutical
412,412,7,24,7,6,123,retail
413,413,9,15,6,1,88,education
414,414,17,24,6,3,186,education
415,415,7,28,9,26,141,software
416,416,10,8,4,19,150,financial
417,417,1,26,7,20,227,retail
418,418,10,0,7,22,129,realestate
419,419,4,25,5,12,186,software
420,420,3,0,2,27,186,software
421,421,1,21,5,21,206,software
422,422,19,23,8,27,73,realestate
423,423,15,7,0,23,186,retail
424,424,16,24,0,20,147,pharmaceutical
425,425,18,11,8,4,65,software
426,426,14,16,2,24,179,retail
427,427,14,10,0,7,192,software
428,428,8,10,4,2,161,financial
429,429,3,10,7,27,175,pharmaceutical
430,430,6,6,6,27,38,realestate
431,431,3,23,3,18,213,realestate
432,432,3,18,4,10,197,education
433,433,9,19,7,21,87,education
434,434,2,29,1,19,199,education
435,435,16,24,1,3,154,education
436,436,19,14,7,29,73,retail
437,437,13,7,6,3,133,realestate
438,438,8,1,1,4,165,education
439,439,16,13,0,10,149,realestate
440,440,5,26,2,20,129,education
441,441,1,21,5,25,158,realestate
442,442,15,13,9,20,207,pharmaceutical
443,443,2,6,6,0,213,education
444,444,2,23,5,24,208,realestate
445,445,17,24,4,28,183,realestate
446,446,6,15,8,3,82,retail
447,447,9,20,9,8,88,software
448,448,17,19,0,24,187,retail
449,449,3,2,6,16,165,pharmaceutical
450,450,3,7,4,17,193,pharmaceutical
451,451,7,17,2,4,166,pharmaceutical
452,452,3,29,1,3,188,realestate
453,453,10,4,5,21,105,education
454,454,9,14,1,6,62,software
455,455,7,2,0,0,140,software
456,456,14,4,0,17,195,pharmaceutical
457,457,19,7,1,8,109,education
458,458,18,28,6,6,96,realestate
459,459,9,1,7,24,59,realestate
460,460,14,10,8,29,196,financial
461,461,16,14,6,25,148,pharmaceutical
462,462,12,20,0,11,91,pharmaceutical
463,463,4,22,5,27,177,software
464,464,17,12,4,19,200,pharmaceutical
465,465,2,13,8,21,212,realestate
466,466,14,7,7,10,180,realestate
467,467,3,12,2,14,207,software
468,468,2,17,9,22,209,education
469,469,17,15,3,9,196,software
470,470,2,25,8,25,204,realestate
471,471,6,17,1,3,53,pharmaceutical
472,472,10,4,0,21,114,retail
473,473,7,2,5,23,157,retail
474,474,6,4,9,16,71,realestate
475,475,1,4,7,22,225,pharmaceutical
476,476,4,28,1,12,189,education
477,477,18,11,6,12,96,retail
478,478,2,20,6,29,205,realestate
479,479,10,12,9,6,103,retail
480,480,19,9,8,10,78,software
481,481,12,9,9,8,109,financial
482,482,6,16,2,10,81,financial
483,483,3,24,4,8,174,realestate
484,484,18,13,5,6,90,financial
485,485,18,19,8,23,80,pharmaceutical
486,486,13,10,2,25,132,education
487,487,16,2,1,26,154,financial
488,488,16,16,9,24,150,financial
489,489,17,6,8,5,191,retail
490,490,10,23,6,15,114,software
491,491,19,10,0,18,109,pharmaceutical
492,492,1,13,2,17,208,education
493,493,15,16,3,17,202,realestate
494,494,9,28,0,2,47,pharmaceutical
495,495,3,7,7,3,172,realestate
496,496,17,25,9,29,183,software
497,497,0,2,7,9,121,retail
498,498,18,8,4,7,55,retail
499,499,6,11,2,12,53,software
500,500,7,0,5,6,163,education
501,501,14,10,0,18,182,financial
502,502,14,28,3,21,183,software
503,503,14,0,2,16,183,retail
504,504,14,7,9,18,189,education
505,505,5,15,4,12,118,pharmaceutical
506,506,7,3,5,26,138,pharmaceutical
507,507,8,17,9,20,163,software
508,508,5,24,1,1,138,retail
509,509,1,25,0,19,178,retail
510,510,19,12,9,24,89,software
511,511,11,16,7,6,139,retail
512,512,17,15,5,18,186,realestate
513,513,5,3,8,11,108,software
514,514,4,1,0,16,185,pharmaceutical
515,515,6,2,5,24,49,pharmaceutical
516,516,17,20,2,9,203,realestate
517,517,8,5,3,15,126,pharmaceutical
518,518,17,12,6,7,203,retail
519,519,9,1,5,16,65,pharmaceutical
520,520,6,7,0,22,64,financial
521,521,11,11,9,24,139,education
522,522,9,0,4,1,45,retail
523,523,5,23,6,12,134,retail
524,524,13,21,2,0,107,software
525,525,6,4,7,27,84,software
526,526,3,10,3,23,207,education
527,527,3,17,5,19,200,realestate
528,528,14,16,0,4,180,financial
529,529,5,22,2,0,116,pharmaceutical
530,530,7,5,0,1,166,retail
531,531,9,10,3,13,77,financial
532,532,6,11,3,25,81,realestate
533,533,15,0,2,26,212,retail
534,534,10,8,3,6,149,software
535,535,17,24,6,18,189,retail
536,536,8,8,8,13,182,software
537,537,13,10,8,9,128,pharmaceutical
538,538,2,7,8,18,215,realestate
539,539,8,13,4,4,200,software
540,540,5,16,3,9,136,software
541,541,13,11,1,21,100,education
542,542,15,24,8,24,200,software
543,543,4,19,1,2,155,software
544,544,10,3,9,15,127,realestate
545,545,6,12,0,21,75,education
546,546,17,15,2,21,195,financial
547,547,15,26,4,29,207,realestate
548,548,8,26,0,2,140,financial
549,549,8,13,3,2,159,pharmaceutical
550,550,15,17,1,22,194,retail
551,551,14,20,3,26,189,retail
552,552,13,25,9,4,108,realestate
553,553,6,29,4,0,86,realestate
554,554,16,11,2,24,148,pharmaceutical
555,555,9,25,4,5,104,software
556,556,1,29,4,15,169,retail
557,557,4,3,9,5,148,retail
558,558,2,22,3,22,202,software
559,559,17,8,6,28,189,software
560,560,12,22,6,27,91,education
561,561,11,11,2,15,97,realestate
562,562,8,15,6,28,197,software
563,563,0,24,2,6,123,software
564,564,2,23,3,11,200,education
565,565,3,26,2,25,204,pharmaceutical
566,566,4,22,7,8,163,education
567,567,10,23,6,10,106,financial
568,568,4,23,2,15,151,software
569,569,8,2,7,8,201,education
570,570,14,17,2,13,190,financial
571,571,9,2,4,17,69,education
572,572,7,0,2,9,143,pharmaceutical
573,573,6,12,4,27,49,pharmaceutical
574,574,13,10,0,21,125,financial
575,575,0,9,6,29,122,education
576,576,11,11,7,6,105,realestate
577,577,19,14,4,12,103,financial
578,578,16,2,3,15,156,financial
579,579,1,19,8,0,226,financial
580,580,3,5,4,12,190,education
581,581,15,26,3,0,211,retail
582,582,9,29,2,25,51,realestate
583,583,16,5,5,17,148,software
584,584,4,22,1,26,195,realestate
585,585,6,2,9,18,62,software
586,586,2,3,8,21,200,financial
587,587,8,27,2,3,129,education
588,588,19,3,1,28,83,pharmaceutical
589,589,1,12,6,29,184,realestate
590,590,0,10,9,28,123,education
591,591,16,4,6,22,148,software
592,592,8,13,6,28,133,education
593,593,15,1,8,3,216,realestate
594,594,18,23,4,13,64,retail
595,595,4,17,8,4,184,education
596,596,13,21,0,29,146,retail
597,597,13,27,7,21,139,financial
598,598,3,8,2,8,207,retail
599,599,2,25,1,26,205,realestate
600,600,11,27,9,29,124,financial
601,601,9,23,5,21,90,realestate
602,602,12,8,1,7,89,education
603,603,4,9,9,22,163,pharmaceutical
604,604,17,10,6,15,194,realestate
605,605,12,22,6,23,95,realestate
606,606,0,22,0,6,120,education
607,607,8,2,0,5,147,retail
608,608,15,23,6,2,211,realestate
609,609,3,8,8,15,185,financial
610,610,10,7,2,15,122,software
611,611,6,18,5,7,52,education
612,612,2,17,0,27,208,education
613,613,4,14,3,10,160,software
614,614,14,21,4,13,189,software
615,615,11,18,1,15,121,realestate
616,616,19,25,8,7,84,retail
617,617,10,14,8,29,116,retail
618,618,1,26,5,26,187,financial
619,619,2,0,8,21,202,realestate
620,620,10,19,7,16,94,financial
621,621,14,20,8,10,179,education
622,622,14,14,0,18,180,education
623,623,1,21,3,11,203,financial
624,624,1,5,8,5,223,pharmaceutical
625,625,5,29,2,13,103,financial
626,626,1,24,6,15,194,retail
627,627,15,8,1,10,218,pharmaceutical
628,628,13,21,6,5,91,retail
629,629,10,24,4,14,109,education
630,630,11,14,3,21,110,financial
631,631,13,4,0,12,104,retail
632,632,16,21,0,8,154,pharmaceutical
633,633,6,1,1,26,45,financial
634,634,0,23,0,20,120,retail
635,635,19,4,2,12,110,software
636,636,9,25,3,16,102,realestate
637,637,8,26,0,12,135,education
638,638,7,26,4,6,146,retail
639,639,19,18,5,22,112,retail
640,640,18,15,0,28,87,realestate
641,641,12,9,7,25,88,software
642,642,7,0,2,4,136,realestate
643,643,13,12,5,28,112,software
644,644,13,16,8,11,138,realestate
645,645,19,14,6,10,109,realestate
646,646,19,20,4,8,83,pharmaceutical
647,647,18,18,4,0,51,pharmaceutical
648,648,15,7,5,29,196,retail
649,649,3,7,9,15,195,realestate
650,650,3,5,7,20,189,pharmaceutical
651,651,12,11,7,8,94,retail
652,652,9,8,7,7,50,realestate
653,653,13,3,2,18,101,retail
654,654,9,4,3,24,77,financial
655,655,11,17,3,29,129,financial
656,656,0,3,9,13,120,pharmaceutical
657,657,9,25,3,3,81,realestate
658,658,13,27,5,4,123,education
659,659,14,28,5,16,188,education
660,660,19,21,1,18,103,software
661,661,0,21,6,29,120,retail
662,662,5,10,6,24,109,education
663,663,13,23,5,26,117,education
664,664,16,27,6,11,150,realestate
665,665,13,11,0,19,120,retail
666,666,5,17,3,17,113,pharmaceutical
667,667,19,26,8,5,101,software
668,668,5,19,4,6,133,retail
669,669,9,13,7,20,95,retail
670,670,11,8,3,4,96,retail
671,671,9,25,2,9,67,software
672,672,9,3,4,7,84,financial
673,673,4,12,1,16,154,financial
674,674,10,2,7,12,144,education
675,675,18,15,3,6,77,financial
676,676,12,9,4,26,94,pharmaceutical
677,677,16,18,3,15,161,pharmaceutical
678,678,6,12,3,22,57,realestate
679,679,10,7,8,9,89,education
680,680,3,2,1,3,210,financial
681,681,6,14,4,5,58,pharmaceutical
682,682,4,17,1,14,181,education
683,683,0,6,8,16,122,pharmaceutical
684,684,9,23,7,6,79,pharmaceutical
685,685,9,20,5,23,79,education
686,686,16,16,1,14,158,retail
687,687,3,6,7,15,200,education
688,688,4,18,5,8,179,pharmaceutical
689,689,18,2,7,14,69,education
690,690,17,13,3,10,205,realestate
691,691,5,10,1,13,103,financial
692,692,4,0,6,4,154,pharmaceutical
693,693,2,2,4,16,204,retail
694,694,15,14,4,27,181,realestate
695,695,5,4,9,4,97,education
696,696,10,13,3,5,106,software
697,697,19,21,6,17,110,retail
698,698,4,26,6,25,165,retail
699,699,17,10,1,28,200,pharmaceutical
700,700,11,10,3,14,95,education
701,701,19,17,8,9,110,financial
702,702,5,29,5,12,136,retail
703,703,4,19,6,18,135,retail
704,704,19,0,9,22,105,pharmaceutical
705,705,15,13,0,26,212,education
706,706,4,18,2,27,152,financial
707,707,12,28,6,29,107,retail
708,708,11,22,0,0,114,retail
709,709,8,7,7,10,115,realestate
710,710,17,13,2,24,195,pharmaceutical
711,711,2,24,9,14,202,financial
712,712,8,1,5,17,157,pharmaceutical
713,713,8,7,6,4,168,pharmaceutical
714,714,17,5,8,28,200,software
715,715,4,4,4,16,188,realestate
716,716,3,28,7,21,208,software
717,717,3,2,0,21,198,pharmaceutical
718,718,3,18,3,11,182,realestate
719,719,13,4,8,13,99,retail
720,720,5,18,7,25,125,software
721,721,6,8,8,5,51,pharmaceutical
722,722,1,25,0,19,194,software
723,723,9,9,0,26,44,financial
724,724,6,20,3,25,70,education
725,725,12,29,3,29,106,financial
726,726,15,20,2,0,213,realestate
727,727,15,1,2,21,218,retail
728,728,14,6,6,21,192,pharmaceutical
729,729,8,3,6,10,179,software
730,730,13,27,1,26,100,realestate
731,731,19,15,0,23,94,financial
732,732,8,23,2,17,147,retail
733,733,7,21,3,29,159,financial
734,734,14,12,8,16,180,realestate
735,735,1,5,9,23,178,retail
736,736,5,26,3,28,119,financial
737,737,15,4,1,8,188,education
738,738,17,5,1,29,185,software
739,739,13,17,2,11,100,education
740,740,13,23,9,5,120,realestate
741,741,14,20,8,5,196,education
742,742,14,29,4,27,196,realestate
743,743,3,28,5,13,194,software
744,744,9,10,8,28,88,retail
745,745,12,22,5,28,104,pharmaceutical
746,746,6,11,9,24,39,realestate
747,747,18,10,5,29,90,retail
748,748,13,15,3,14,98,education
749,749,1,7,7,18,174,realestate
750,750,6,25,7,28,86,software
751,751,12,6,2,29,94,software
752,752,16,10,4,25,148,retail
753,753,7,23,3,0,134,software
754,754,19,5,4,10,90,retail
755,755,12,0,1,3,100,software
756,756,14,3,0,6,182,education
757,757,11,17,2,12,115,realestate
758,758,16,12,7,8,155,pharmaceutical
759,759,19,22,8,17,114,financial
760,760,1,9,6,2,187,pharmaceutical
761,761,8,0,1,27,153,realestate
762,762,15,16,6,4,214,software
763,763,15,6,6,29,186,retail
764,764,9,5,2,7,59,software
765,765,3,24,6,27,215,education
766,766,16,15,4,7,161,education
767,767,11,5,1,27,105,retail
768,768,10,22,3,12,112,retail
769,769,10,11,6,20,159,education
770,770,8,18,4,3,207,realestate
771,771,0,4,5,12,122,retail
772,772,12,0,0,1,102,education
773,773,10,29,2,8,158,education
774,774,3,12,1,20,174,education
775,775,16,17,0,22,149,software
776,776,19,6,0,9,90,software
777,777,5,28,8,22,116,education
778,778,11,15,3,20,112,software
779,779,16,29,3,28,148,realestate
780,780,0,19,1,9,120,financial
781,781,18,4,5,15,55,retail
782,782,13,20,2,13,110,pharmaceutical
783,783,4,12,0,2,187,pharmaceutical
784,784,4,28,4,13,175,education
785,785,1,0,8,0,191,retail
786,786,13,20,5,1,122,financial
787,787,15,7,4,13,209,realestate
788,788,0,18,3,3,122,retail
789,789,14,8,7,5,179,education
790,790,2,14,4,8,211,realestate
791,791,14,29,6,8,198,pharmaceutical
792,792,10,0,3,19,109,education
793,793,2,17,9,11,199,financial
794,794,19,22,7,16,114,education
795,795,11,7,2,23,132,education
796,796,8,28,7,28,154,pharmaceutical
797,797,14,6,8,9,179,financial
798,798,5,15,3,26,136,pharmaceutical
799,799,3,5,7,28,207,retail
800,800,7,5,8,9,121,education
801,801,14,6,0,26,185,education
802,802,6,8,7,20,80,realestate
803,803,5,23,8,4,119,financial
804,804,2,16,5,8,219,education
805,805,17,16,6,10,204,financial
806,806,15,28,4,3,207,financial
807,807,18,7,2,25,70,realestate
808,808,17,20,6,25,203,education
809,809,14,27,5,26,193,pharmaceutical
810,810,3,10,4,13,193,education
811,811,16,4,6,7,153,education
812,812,8,16,0,6,208,retail
813,813,18,6,2,10,64,education
814,814,9,3,7,23,48,retail
815,815,10,16,0,4,115,financial
816,816,10,12,2,27,120,retail
817,817,18,17,2,21,94,software
818,818,0,2,1,24,120,financial
819,819,15,9,7,15,208,education
820,820,4,26,3,11,136,financial
821,821,9,18,3,19,92,retail
822,822,17,10,5,4,204,software
823,823,0,14,2,13,121,realestate
824,824,10,20,8,20,156,financial
825,825,19,9,5,1,105,financial
826,826,0,9,5,2,122,realestate
827,827,17,11,5,21,189,retail
828,828,18,4,5,2,93,financial
829,829,1,12,6,16,215,education
830,830,16,29,4,15,152,realestate
831,831,4,25,1,8,195,retail
832,832,18,15,1,18,52,realestate
833,833,13,20,7,1,102,financial
834,834,7,28,7,0,166,education
835,835,8,18,8,7,202,financial
836,836,1,24,0,6,160,software
837,837,18,23,4,21,60,retail
838,838,11,1,4,24,118,retail
839,839,0,21,8,9,122,retail
840,840,11,24,9,28,91,retail
841,841,0,25,9,3,123,software
842,842,15,29,9,23,198,software
843,843,0,4,0,17,121,education
844,844,5,14,7,29,121,realestate
845,845,13,8,7,9,89,pharmaceutical
846,846,12,3,5,17,84,pharmaceutical
847,847,6,27,6,23,83,realestate
848,848,17,22,1,3,196,software
849,849,8,12,1,13,186,retail
850,850,3,18,8,11,205,software
851,851,18,19,9,9,95,realestate
852,852,9,5,4,14,82,retail
853,853,5,14,8,6,129,software
854,854,13,16,7,16,116,pharmaceutical
855,855,16,21,1,24,150,pharmaceutical
856,856,8,23,2,8,200,retail
857,857,11,11,1,10,91,software
858,858,3,24,8,4,209,realestate
859,859,7,5,4,13,162,pharmaceutical
860,860,14,10,8,29,178,software
861,861,10,9,5,20,140,realestate
862,862,1,21,5,10,159,pharmaceutical
863,863,19,25,7,19,103,financial
864,864,10,13,2,24,98,retail
865,865,7,11,3,3,144,retail
866,866,14,17,0,17,183,realestate
867,867,13,6,1,21,87,pharmaceutical
868,868,19,2,5,2,78,realestate
869,869,9,16,4,19,45,education
870,870,9,2,3,14,61,software
871,871,3,21,4,21,184,financial
872,872,14,14,7,4,195,software
873,873,15,26,0,17,184,software
874,874,6,28,8,18,78,pharmaceutical
875,875,2,29,9,21,201,education
876,876,11,8,8,28,115,realestate
877,877,16,4,3,22,150,software
878,878,12,20,3,13,109,financial
879,879,7,24,7,10,139,financial
880,880,5,12,2,14,93,software
881,881,16,7,1,3,146,software
882,882,19,4,5,26,89,software
883,883,6,7,5,4,40,pharmaceutical
884,884,9,21,0,8,73,financial
885,885,8,29,9,16,199,financial
886,886,14,4,2,6,194,software
887,887,3,19,2,24,173,pharmaceutical
888,888,4,19,0,17,134,financial
889,889,6,10,7,6,75,education
890,890,8,21,2,3,184,education
891,891,19,4,4,13,112,education
892,892,10,0,3,15,158,financial
893,893,4,1,5,7,174,financial
894,894,5,18,9,12,103,retail
895,895,3,2,4,6,191,realestate
896,896,8,14,6,7,171,software
897,897,6,19,0,3,62,financial
898,898,0,0,3,16,119,retail
899,899,0,7,4,28,119,financial
900,900,13,7,2,16,108,retail
901,901,18,5,2,12,67,pharmaceutical
902,902,18,8,0,28,67,retail
903,903,2,29,8,18,216,software
904,904,9,9,0,0,65,pharmaceutical
905,905,18,11,1,16,83,realestate
906,906,18,5,5,24,91,software
907,907,0,18,6,15,123,financial
908,908,17,5,0,15,201,retail
909,909,2,6,3,19,201,financial
910,910,16,13,7,13,158,retail
911,911,2,3,1,11,209,retail
912,912,11,10,9,14,108,realestate
913,913,18,11,2,6,65,financial
914,914,8,13,2,25,120,education
915,915,17,17,4,15,185,education
916,916,11,15,4,23,141,realestate
917,917,8,6,2,7,146,pharmaceutical
918,918,17,7,0,18,192,education
919,919,8,12,3,27,188,pharmaceutical
920,920,3,16,6,18,176,realestate
921,921,19,11,5,10,83,financial
922,922,19,5,3,10,96,software
923,923,0,8,1,21,119,realestate
924,924,13,24,6,10,93,retail
925,925,7,23,1,22,132,retail
926,926,2,24,5,22,207,retail
927,927,2,24,5,5,210,financial
928,928,18,24,2,10,95,pharmaceutical
929,929,8,1,2,13,157,retail
930,930,4,0,6,10,168,realestate
931,931,17,10,6,6,202,retail
932,932,19,3,0,21,102,financial
933,933,18,10,0,14,92,financial
934,934,7,3,5,20,134,retail
935,935,14,9,5,1,179,realestate
936,936,12,24,9,5,97,education
937,937,7,27,1,3,161,financial
938,938,12,7,4,7,80,retail
939,939,13,16,3,4,120,retail
940,940,17,25,6,12,192,education
941,941,12,19,6,1,103,education
942,942,4,0,8,10,159,education
943,943,14,19,3,18,197,education
944,944,14,16,3,3,195,financial
945,945,10,28,6,0,153,retail
946,946,13,16,9,5,138,financial
947,947,1,2,4,4,229,retail
948,948,10,3,6,26,123,financial
949,949,9,12,6,7,57,retail
950,950,17,17,1,24,204,education
951,951,16,26,8,1,162,education
952,952,16,28,7,17,162,realestate
953,953,7,17,5,9,161,software
954,954,11,26,7,29,141,realestate
955,955,17,12,9,19,204,financial
956,956,2,25,1,25,200,education
957,957,7,6,2,29,159,software
958,958,18,7,5,28,97,pharmaceutical
959,959,0,11,6,20,123,software
960,960,4,27,6,17,169,retail
961,961,14,9,1,14,193,education
962,962,15,28,9,3,219,education
963,963,4,20,5,27,166,software
964,964,13,16,6,29,135,financial
965,965,4,7,9,5,138,software
966,966,15,4,6,22,211,pharmaceutical
967,967,19,21,5,19,119,education
968,968,12,17,2,4,106,financial
969,969,16,11,0,14,157,realestate
970,970,11,17,8,27,104,pharmaceutical
971,971,4,25,7,12,191,retail
972,972,18,10,5,20,52,retail
973,973,8,2,8,18,130,software
974,974,4,10,1,13,137,education
975,975,8,10,9,8,145,education
976,976,15,26,1,5,196,education
977,977,7,18,3,24,132,financial
978,978,3,0,8,18,190,financial
979,979,0,14,7,18,121,software
980,980,3,2,4,9,170,financial
981,981,17,27,5,16,200,pharmaceutical
982,982,2,21,6,27,199,realestate
983,983,10,20,3,17,97,financial
984,984,0,27,2,23,123,realestate
985,985,14,26,3,2,189,software
986,986,17,7,7,16,200,financial
987,987,8,4,6,9,126,retail
988,988,7,16,9,17,142,financial
989,989,17,25,9,2,204,pharmaceutical
990,990,8,1,2,17,129,retail
991,991,2,3,9,22,215,software
992,992,1,6,3,19,175,realestate
993,993,8,10,1,23,203,software
994,994,13,0,9,3,124,realestate
995,995,17,5,4,19,187,software
996,996,15,11,5,11,194,financial
997,997,12,10,5,2,110,pharmaceutical
998,998,6,19,1,20,48,software
999,999,12,29,4,13,94,financial
1000,1000,17,15,3,8,192,realestate
1001,1001,2,25,0,1,215,software
1002,1002,1,6,3,21,196,realestate
1003,1003,3,27,3,28,212,education
1004,1004,19,1,3,11,73,software
1005,1005,16,2,6,9,149,education
1006,1006,13,21,5,16,103,pharmaceutical
1007,1007,7,4,3,19,136,education
1008,1008,5,24,1,2,136,retail
1009,1009,7,24,0,23,124,financial
1010,1010,2,20,9,4,203,retail
1011,1011,12,14,6,18,83,financial
1012,1012,19,12,7,21,82,software
1013,1013,2,17,9,7,215,education
1014,1014,8,17,1,20,193,education
1015,1015,19,4,5,17,71,education
1016,1016,10,27,3,28,141,retail
1017,1017,8,18,7,4,182,pharmaceutical
1018,1018,0,25,7,2,122,financial
1019,1019,12,26,0,1,103,pharmaceutical
1020,1020,14,3,6,18,183,software
1021,1021,0,14,2,1,119,financial
1022,1022,4,10,4,16,159,realestate
1023,1023,16,4,7,29,158,software
1024,1024,1,3,2,18,179,software
1025,1025,18,24,3,24,73,education
1026,1026,18,29,9,12,75,retail
1027,1027,16,6,5,11,158,retail
1028,1028,8,19,5,5,153,software
1029,1029,19,26,0,7,107,pharmaceutical
1030,1030,4,2,8,18,179,retail
1031,1031,5,26,2,12,122,retail
1032,1032,17,29,4,23,184,retail
1033,1033,5,23,1,15,95,pharmaceutical
1034,1034,7,18,4,27,167,financial
1035,1035,1,13,7,16,235,financial
1036,1036,9,10,4,2,70,pharmaceutical
1037,1037,16,8,0,23,161,retail
1038,1038,13,3,9,19,139,pharmaceutical
1039,1039,12,24,6,19,85,education
1040,1040,5,1,6,19,119,financial
1041,1041,12,0,7,26,86,financial
1042,1042,5,9,1,12,110,education
1043,1043,16,23,9,0,150,realestate
1044,1044,0,9,1,3,121,pharmaceutical
1045,1045,15,3,9,8,201,pharmaceutical
1046,1046,19,24,8,12,87,financial
1047,1047,14,11,3,21,184,realestate
1048,1048,15,28,9,13,204,retail
1049,1049,1,17,7,23,166,retail
1050,1050,5,25,7,26,140,retail
1051,1051,0,20,1,17,120,software
1052,1052,13,14,4,27,133,software
1053,1053,13,0,5,0,134,retail
1054,1054,10,0,8,29,149,retail
1055,1055,9,17,8,23,87,realestate
1056,1056,5,5,9,21,117,education
1057,1057,7,7,3,8,121,education
1058,1058,1,25,9,11,202,pharmaceutical
1059,1059,9,21,4,3,65,realestate
1060,1060,14,0,1,4,197,financial
1061,1061,19,7,7,7,85,software
1062,1062,9,14,0,12,51,software
1063,1063,19,6,9,18,86,financial
1064,1064,19,3,6,23,96,education
1065,1065,16,25,5,15,161,realestate
1066,1066,16,20,8,27,161,education
1067,1067,5,13,9,18,110,retail
1068,1068,1,27,6,5,163,realestate
1069,1069,6,0,7,25,77,software
1070,1070,10,28,8,13,146,pharmaceutical
1071,1071,10,22,5,24,117,retail
1072,1072,18,27,1,12,72,retail
1073,1073,15,10,7,24,194,financial
1074,1074,17,26,0,16,197,realestate
1075,1075,7,22,5,9,137,retail
1076,1076,3,0,4,3,199,realestate
1077,1077,17,21,1,9,202,software
1078,1078,19,22,6,10,114,software
1079,1079,8,9,3,7,187,financial
1080,1080,14,14,6,14,195,software
1081,1081,12,25,7,6,93,software
1082,1082,12,24,3,9,91,realestate
1083,1083,14,26,0,23,185,education
1084,1084,18,24,8,10,73,pharmaceutical
1085,1085,2,18,9,29,204,financial
1086,1086,6,5,0,0,52,realestate
1087,1087,5,12,5,3,106,financial
1088,1088,8,9,1,13,164,financial
1089,1089,12,18,4,0,105,pharmaceutical
1090,1090,7,5,4,19,149,financial
1091,1091,8,2,7,7,146,pharmaceutical
1092,1092,4,20,0,13,149,software
1093,1093,10,27,1,23,91,software
1094,1094,14,7,7,29,199,retail
1095,1095,6,15,3,27,79,software
1096,1096,8,7,6,25,178,software
1097,1097,0,10,8,1,119,pharmaceutical
1098,1098,13,14,4,14,124,software
1099,1099,1,6,6,10,167,retail
1100,1100,17,19,0,4,200,pharmaceutical
1101,1101,0,3,4,22,119,financial
1102,1102,3,6,4,23,166,retail
1103,1103,10,2,8,25,144,software
1104,1104,12,15,6,17,91,pharmaceutical
1105,1105,7,4,4,22,134,realestate
1106,1106,14,8,0,2,196,education
1107,1107,3,4,5,12,200,financial
1108,1108,8,2,9,6,154,financial
1109,1109,19,7,3,22,85,realestate
1110,1110,9,24,2,3,54,education
1111,1111,4,18,9,1,168,pharmaceutical
1112,1112,3,28,1,14,167,retail
1113,1113,6,21,1,14,74,pharmaceutical
1114,1114,13,19,9,24,146,software
1115,1115,13,23,2,3,111,software
1116,1116,2,26,4,2,212,education
1117,1117,17,16,5,12,184,education
1118,1118,1,19,8,4,228,pharmaceutical
1119,1119,9,0,1,23,70,software
1120,1120,10,23,5,5,144,education
1121,1121,5,29,2,27,115,education
1122,1122,19,5,3,18,108,financial
1123,1123,18,10,0,0,69,financial
1124,1124,5,8,6,6,108,retail
1125,1125,12,7,3,24,84,retail
1126,1126,5,10,6,8,135,education
1127,1127,13,3,6,24,114,realestate
1128,1128,14,4,9,18,186,software
1129,1129,9,7,8,29,93,education
1130,1130,10,21,5,3,129,retail
1131,1131,8,7,9,21,180,retail
1132,1132,10,19,5,0,111,retail
1133,1133,13,6,2,18,136,realestate
1134,1134,16,11,2,18,151,financial
1135,1135,11,14,1,2,140,retail
1136,1136,0,6,0,23,120,software
1137,1137,2,29,4,2,207,education
1138,1138,15,22,3,18,205,pharmaceutical
1139,1139,3,11,5,10,205,software
1140,1140,3,3,4,17,168,retail
1141,1141,17,13,1,23,190,education
1142,1142,15,11,6,4,206,retail
1143,1143,3,0,9,12,171,pharmaceutical
1144,1144,6,16,1,8,65,realestate
1145,1145,11,23,9,28,93,pharmaceutical
1146,1146,11,25,0,12,114,pharmaceutical
1147,1147,9,19,1,1,88,realestate
1148,1148,13,12,8,21,144,software
1149,1149,5,18,0,6,105,financial
1150,1150,9,10,1,22,43,financial
1151,1151,13,16,7,5,90,education
1152,1152,16,0,3,22,148,software
1153,1153,6,18,7,18,53,realestate
1154,1154,14,28,2,16,190,education
1155,1155,1,16,3,3,198,retail
1156,1156,6,26,9,23,60,financial
1157,1157,12,14,1,28,93,software
1158,1158,8,15,8,9,196,realestate
1159,1159,17,24,9,21,203,software
1160,1160,12,7,9,29,102,financial
1161,1161,19,27,4,22,71,realestate
1162,1162,11,9,3,28,93,pharmaceutical
1163,1163,6,13,2,28,65,education
1164,1164,4,5,4,17,180,retail
1165,1165,13,23,5,14,95,software
1166,1166,1,19,5,18,162,retail
1167,1167,2,14,3,21,205,retail
1168,1168,9,16,8,20,66,realestate
1169,1169,14,24,6,27,194,pharmaceutical
1170,1170,9,9,1,18,101,education
1171,1171,14,28,0,15,196,pharmaceutical
1172,1172,8,3,1,26,146,pharmaceutical
1173,1173,19,14,1,19,79,financial
1174,1174,3,25,2,5,214,realestate
1175,1175,8,10,8,25,138,education
1176,1176,9,19,7,25,48,retail
1177,1177,19,7,3,1,79,pharmaceutical
1178,1178,10,29,6,21,134,education
1179,1179,18,11,3,6,96,pharmaceutical
1180,1180,19,26,7,22,115,education
1181,1181,11,17,9,3,92,financial
1182,1182,8,8,5,12,171,retail
1183,1183,0,5,6,14,122,financial
1184,1184,2,26,2,17,207,software
1185,1185,19,3,2,22,100,financial
1186,1186,12,2,0,28,106,financial
1187,1187,18,18,7,24,57,financial
1188,1188,12,28,6,2,81,financial
1189,1189,5,6,6,13,105,software
1190,1190,18,24,2,18,95,retail
1191,1191,13,9,1,10,142,software
1192,1192,15,4,3,14,203,education
1193,1193,10,24,5,6,133,software
1194,1194,7,9,3,19,165,education
1195,1195,11,25,2,22,106,financial
1196,1196,15,5,7,24,182,education
1197,1197,5,19,6,14,107,realestate
1198,1198,18,22,5,29,64,education
1199,1199,10,14,6,9,117,education
1200,1200,19,17,2,29,108,retail
1201,1201,0,22,8,4,123,retail
1202,1202,4,16,5,24,154,software
1203,1203,6,14,2,27,61,financial
1204,1204,19,7,5,1,95,education
1205,1205,14,23,8,6,191,financial
1206,1206,12,20,2,17,92,software
1207,1207,12,12,3,5,107,realestate
1208,1208,5,0,8,20,95,realestate
1209,1209,18,6,9,11,102,education
1210,1210,16,18,2,11,151,realestate
1211,1211,16,18,5,26,155,retail
1212,1212,12,27,9,1,82,pharmaceutical
1213,1213,10,1,8,17,89,education
1214,1214,17,5,4,11,199,education
1215,1215,11,4,1,4,107,financial
1216,1216,14,26,3,19,187,realestate
1217,1217,7,14,5,20,131,realestate
1218,1218,1,6,5,25,201,software
1219,1219,9,21,5,18,57,realestate
1220,1220,17,15,1,11,197,education
1221,1221,6,8,7,1,63,realestate
1222,1222,19,13,1,17,87,retail
1223,1223,13,22,1,22,122,software
1224,1224,2,2,0,20,212,pharmaceutical
1225,1225,1,18,1,13,165,retail
1226,1226,6,6,3,20,57,financial
1227,1227,11,11,6,5,132,financial
1228,1228,3,20,3,22,179,financial
1229,1229,4,21,4,2,147,pharmaceutical
1230,1230,12,8,4,12,86,software
1231,1231,12,22,5,26,103,retail
1232,1232,3,10,9,28,179,pharmaceutical
1233,1233,11,5,9,20,125,retail
1234,1234,15,0,7,9,185,realestate
1235,1235,6,5,0,14,65,software
1236,1236,19,5,4,0,109,retail
1237,1237,4,9,6,20,172,pharmaceutical
1238,1238,10,12,9,15,124,realestate
1239,1239,15,9,8,20,205,education
1240,1240,8,21,4,2,202,retail
1241,1241,11,2,9,23,119,education
1242,1242,11,0,7,0,129,realestate
1243,1243,15,11,6,3,218,realestate
1244,1244,4,11,2,12,192,software
1245,1245,14,8,1,17,195,education
1246,1246,8,23,7,6,166,software
1247,1247,13,13,7,3,106,education
1248,1248,2,15,6,7,203,realestate
1249,1249,19,10,5,12,80,financial
1250,1250,12,4,6,3,108,financial
1251,1251,19,18,5,18,82,pharmaceutical
1252,1252,10,8,4,8,91,software
1253,1253,8,11,5,6,166,retail
1254,1254,3,14,9,18,171,education
1255,1255,3,7,6,5,177,retail
1256,1256,14,20,6,14,191,retail
1257,1257,5,27,9,5,129,pharmaceutical
1258,1258,10,23,3,22,137,education
1259,1259,10,10,4,20,123,pharmaceutical
1260,1260,7,0,3,21,151,retail
1261,1261,10,5,4,19,112,education
1262,1262,17,29,3,8,195,education
1263,1263,8,3,0,17,156,education
1264,1264,17,8,4,8,190,retail
1265,1265,9,17,4,4,103,pharmaceutical
1266,1266,15,2,3,27,203,pharmaceutical
1267,1267,6,24,4,7,41,financial
1268,1268,10,0,0,21,95,education
1269,1269,12,16,1,3,84,software
1270,1270,18,29,4,13,101,retail
1271,1271,12,15,7,20,110,software
1272,1272,5,2,5,24,138,software
1273,1273,3,6,6,22,170,financial
1274,1274,12,22,2,8,106,realestate
1275,1275,11,20,7,2,102,pharmaceutical
1276,1276,6,28,2,3,59,financial
1277,1277,3,16,9,6,202,software
1278,1278,17,12,1,3,192,realestate
1279,1279,3,13,9,11,184,financial
1280,1280,10,1,2,14,155,pharmaceutical
1281,1281,11,14,9,19,133,realestate
1282,1282,10,9,7,0,120,software
1283,1283,2,26,1,19,218,software
1284,1284,15,1,9,15,219,software
1285,1285,1,10,8,2,158,financial
1286,1286,3,25,3,9,167,education
1287,1287,16,26,3,1,161,realestate
1288,1288,10,26,8,21,91,software
1289,1289,2,29,3,29,202,software
1290,1290,5,1,0,12,112,pharmaceutical
1291,1291,12,15,0,13,96,pharmaceutical
1292,1292,9,24,5,11,47,education
1293,1293,11,8,9,1,133,retail
1294,1294,15,10,4,20,200,realestate
1295,1295,1,17,1,18,158,software
1296,1296,15,9,2,27,208,retail
1297,1297,16,28,5,11,158,software
1298,1298,8,26,1,26,204,financial
1299,1299,2,27,3,22,212,education
1300,1300,6,26,2,19,64,financial
1301,1301,3,1,0,15,171,pharmaceutical
1302,1302,18,25,7,23,51,education
1303,1303,3,12,3,7,206,pharmaceutical
1304,1304,5,0,6,12,92,education
1305,1305,18,4,6,21,101,education
1306,1306,18,20,6,23,96,software
1307,1307,12,0,6,18,88,retail
1308,1308,12,19,8,22,108,pharmaceutical
1309,1309,18,17,7,10,63,financial
1310,1310,0,16,0,26,120,financial
1311,1311,12,16,8,11,107,realestate
1312,1312,13,24,2,4,137,realestate
1313,1313,11,2,3,0,108,retail
1314,1314,14,8,4,8,188,realestate
1315,1315,19,20,5,0,84,pharmaceutical
1316,1316,8,20,0,20,204,retail
1317,1317,4,7,6,15,169,education
1318,1318,17,8,0,5,184,retail
1319,1319,3,1,4,29,204,realestate
1320,1320,15,14,9,5,192,pharmaceutical
1321,1321,16,23,6,11,155,software
1322,1322,16,13,4,6,156,realestate
1323,1323,1,22,1,27,196,education
1324,1324,11,20,1,14,109,retail
1325,1325,0,19,8,21,119,retail
1326,1326,17,7,8,22,184,retail
1327,1327,11,20,1,11,110,pharmaceutical
1328,1328,11,14,5,2,125,financial
1329,1329,17,27,3,19,184,education
1330,1330,5,25,1,10,140,pharmaceutical
1331,1331,18,11,0,1,51,financial
1332,1332,5,7,2,5,105,software
1333,1333,11,21,6,21,131,pharmaceutical
1334,1334,12,10,6,3,104,software
1335,1335,13,21,1,14,116,education
1336,1336,11,4,5,1,112,retail
1337,1337,12,14,2,15,108,software
1338,1338,2,25,7,3,199,software
1339,1339,14,2,3,3,192,retail
1340,1340,8,16,0,1,147,realestate
1341,1341,2,26,2,24,211,realestate
1342,1342,6,20,4,12,55,realestate
1343,1343,13,4,4,2,138,education
1344,1344,7,15,1,1,129,realestate
1345,1345,18,6,5,25,81,financial
1346,1346,9,4,2,24,45,education
1347,1347,19,11,5,11,91,realestate
1348,1348,17,9,8,25,197,financial
1349,1349,17,1,2,25,197,education
1350,1350,3,15,9,12,200,pharmaceutical
1351,1351,18,19,6,13,93,education
1352,1352,3,9,8,14,207,realestate
1353,1353,7,24,8,18,130,financial
1354,1354,14,6,4,12,187,retail
1355,1355,1,20,4,23,189,retail
1356,1356,11,16,1,6,131,financial
1357,1357,8,0,3,20,158,education
1358,1358,19,23,0,14,77,financial
1359,1359,16,0,3,0,148,pharmaceutical
1360,1360,9,20,7,0,98,financial
1361,1361,8,23,1,7,180,financial
1362,1362,3,23,8,22,178,pharmaceutical
1363,1363,14,8,1,13,190,pharmaceutical
1364,1364,9,10,2,13,56,financial
1365,1365,19,8,0,27,84,education
1366,1366,3,5,1,15,214,realestate
1367,1367,6,6,1,8,64,realestate
1368,1368,0,17,2,19,123,financial
1369,1369,0,29,1,29,120,retail
1370,1370,8,9,6,5,200,financial
1371,1371,5,23,5,10,99,retail
1372,1372,16,11,2,18,156,software
1373,1373,3,17,6,24,202,software
1374,1374,14,0,7,26,183,education
1375,1375,1,18,2,17,211,pharmaceutical
1376,1376,17,13,5,24,195,realestate
1377,1377,1,28,9,9,158,realestate
1378,1378,19,2,3,27,82,financial
1379,1379,12,13,7,6,110,financial
1380,1380,9,7,6,13,58,software
1381,1381,9,13,7,1,90,software
1382,1382,4,27,7,9,132,financial
1383,1383,17,20,3,17,201,retail
1384,1384,13,24,1,23,128,education
1385,1385,18,7,0,17,73,software
1386,1386,16,9,5,25,152,retail
1387,1387,12,5,5,13,83,financial
1388,1388,7,21,5,1,162,financial
1389,1389,4,0,2,21,179,pharmaceutical
1390,1390,5,10,2,23,116,financial
1391,1391,17,8,1,1,195,pharmaceutical
1392,1392,16,15,8,20,158,financial
1393,1393,13,3,5,14,123,education
1394,1394,13,9,6,15,99,education
1395,1395,2,10,9,25,215,education
1396,1396,7,21,4,26,133,financial
1397,1397,15,21,6,5,184,education
1398,1398,14,29,9,17,194,retail
1399,1399,13,15,5,16,119,pharmaceutical
1400,1400,7,11,1,9,136,software
1401,1401,3,17,1,5,170,retail
1402,1402,11,13,1,15,121,pharmaceutical
1403,1403,9,10,9,10,97,realestate
1404,1404,18,22,3,1,95,financial
1405,1405,17,26,2,12,187,financial
1406,1406,7,5,0,22,119,retail
1407,1407,13,10,6,0,96,education
1408,1408,14,26,1,15,181,financial
1409,1409,1,18,7,14,184,software
1410,1410,11,16,3,25,141,pharmaceutical
1411,1411,8,23,4,26,182,education
1412,1412,18,1,1,27,97,realestate
1413,1413,7,15,4,5,151,software
1414,1414,12,14,5,19,82,software
1415,1415,9,17,1,12,78,pharmaceutical
1416,1416,2,21,2,27,219,retail
1417,1417,18,28,6,29,63,pharmaceutical
1418,1418,14,21,5,19,190,retail
1419,1419,14,1,1,3,182,education
1420,1420,12,0,0,29,84,pharmaceutical
1421,1421,6,6,9,1,58,financial
1422,1422,8,17,7,15,128,financial
1423,1423,16,28,9,17,152,realestate
1424,1424,4,11,5,9,174,financial
1425,1425,7,1,9,14,165,pharmaceutical
1426,1426,1,13,3,15,194,software
1427,1427,2,0,8,12,216,education
1428,1428,7,23,8,25,160,pharmaceutical
1429,1429,19,27,1,27,103,retail
1430,1430,16,8,7,22,162,realestate
1431,1431,7,24,1,16,139,retail
1432,1432,12,2,3,1,109,financial
1433,1433,13,26,1,28,90,software
1434,1434,12,27,4,7,98,financial
1435,1435,14,21,1,22,189,retail
1436,1436,19,21,9,6,100,education
1437,1437,9,6,0,25,67,pharmaceutical
1438,1438,11,26,8,7,119,software
1439,1439,13,8,2,20,100,pharmaceutical
1440,1440,11,19,6,4,139,retail
1441,1441,19,17,3,3,89,software
1442,1442,2,0,4,8,204,education
1443,1443,13,6,4,22,133,retail
1444,1444,7,27,3,13,126,pharmaceutical
1445,1445,19,24,6,1,89,retail
1446,1446,19,19,1,16,89,education
1447,1447,9,15,1,8,50,software
1448,1448,16,23,7,25,156,realestate
1449,1449,7,17,4,16,156,pharmaceutical
1450,1450,15,25,4,4,194,retail
1451,1451,11,11,1,1,111,software
1452,1452,10,3,8,9,105,education
1453,1453,12,22,4,18,78,software
1454,1454,18,22,3,1,74,financial
1455,1455,17,8,0,14,192,retail
1456,1456,10,13,8,24,99,pharmaceutical
1457,1457,3,17,8,29,182,retail
1458,1458,8,14,5,23,161,realestate
1459,1459,18,18,6,25,55,software
1460,1460,1,13,3,14,236,education
1461,1461,0,10,4,23,121,financial
1462,1462,2,7,5,4,219,financial
1463,1463,15,29,8,18,207,retail
1464,1464,0,19,5,4,120,financial
1465,1465,2,8,0,9,217,financial
1466,1466,3,28,4,16,205,education
1467,1467,12,15,3,9,99,pharmaceutical
1468,1468,7,10,0,11,134,education
1469,1469,14,14,8,27,194,software
1470,1470,2,9,9,10,205,realestate
1471,1471,0,24,5,24,120,financial
1472,1472,7,19,0,14,153,software
1473,1473,10,25,7,2,121,software
1474,1474,0,5,4,11,122,software
1475,1475,5,29,8,27,134,software
1476,1476,19,1,2,6,107,pharmaceutical
1477,1477,17,19,5,8,196,financial
1478,1478,9,26,6,29,75,software
1479,1479,14,11,5,19,193,financial
1480,1480,11,10,5,2,115,education
1481,1481,13,4,2,15,130,financial
1482,1482,0,2,5,6,123,software
1483,1483,11,10,7,21,109,retail
1484,1484,1,18,6,16,162,software
1485,1485,17,9,2,3,190,pharmaceutical
1486,1486,13,16,6,24,106,education
1487,1487,7,6,8,15,120,education
1488,1488,13,0,5,26,103,financial
1489,1489,5,7,5,16,125,education
1490,1490,5,23,0,17,123,retail
1491,1491,6,15,0,14,65,pharmaceutical
1492,1492,9,25,0,0,105,realestate
1493,1493,1,11,4,8,187,realestate
1494,1494,5,22,5,18,94,financial
1495,1495,2,24,9,16,217,financial
1496,1496,18,25,6,14,93,retail
1497,1497,17,21,8,25,198,software
1498,1498,19,12,9,1,116,pharmaceutical
1499,1499,11,22,4,25,94,realestate
1500,1500,6,2,7,4,78,software
1501,1501,16,8,9,15,154,retail
1502,1502,14,3,3,13,185,education
1503,1503,2,12,6,0,210,software
1504,1504,14,4,0,1,186,financial
1505,1505,8,22,5,27,174,education
1506,1506,8,7,9,24,110,education
1507,1507,14,27,7,0,189,retail
1508,1508,7,18,0,4,124,education
1509,1509,6,7,7,10,43,realestate
1510,1510,3,9,9,12,208,financial
1511,1511,8,20,2,4,190,pharmaceutical
1512,1512,10,8,6,11,156,pharmaceutical
1513,1513,15,10,0,6,191,retail
1514,1514,13,29,0,7,105,software
1515,1515,19,28,1,7,77,realestate
1516,1516,1,12,8,0,180,software
1517,1517,6,24,6,8,76,financial
1518,1518,4,16,3,10,138,realestate
1519,1519,7,22,2,20,148,retail
1520,1520,6,8,7,12,61,financial
1521,1521,9,17,0,23,71,retail
1522,1522,6,25,6,13,83,financial
1523,1523,18,19,3,0,75,software
1524,1524,7,17,5,27,148,retail
1525,1525,3,1,7,0,213,retail
1526,1526,18,26,0,9,52,realestate
1527,1527,11,25,0,27,128,financial
1528,1528,18,12,6,8,80,pharmaceutical
1529,1529,16,12,1,29,154,retail
1530,1530,5,8,6,18,99,education
1531,1531,8,14,5,8,203,software
1532,1532,12,13,6,28,106,financial
1533,1533,0,29,3,26,121,education
1534,1534,0,9,1,12,123,realestate
1535,1535,8,24,5,6,163,pharmaceutical
1536,1536,5,26,8,20,123,realestate
1537,1537,14,25,1,1,189,realestate
1538,1538,11,14,5,13,117,financial
1539,1539,10,28,3,19,123,pharmaceutical
1540,1540,0,21,2,3,119,realestate
1541,1541,5,18,5,17,133,education
1542,1542,7,29,8,22,162,retail
1543,1543,14,28,6,7,197,retail
1544,1544,13,7,0,21,133,software
1545,1545,6,2,0,25,54,financial
1546,1546,5,17,7,25,135,realestate
1547,1547,5,1,4,15,122,software
1548,1548,2,15,0,22,216,retail
1549,1549,1,0,9,17,156,software
1550,1550,3,26,5,28,194,pharmaceutical
1551,1551,16,13,4,29,162,realestate
1552,1552,0,2,1,25,120,financial
1553,1553,7,20,9,9,152,retail
1554,1554,0,15,4,14,121,software
1555,1555,6,6,6,21,63,education
1556,1556,14,9,4,2,189,retail
1557,1557,16,0,2,3,162,pharmaceutical
1558,1558,19,7,6,9,106,software
1559,1559,15,27,9,19,198,education
1560,1560,9,2,2,28,90,realestate
1561,1561,13,0,9,5,107,realestate
1562,1562,17,17,4,17,204,pharmaceutical
1563,1563,17,13,9,9,184,financial
1564,1564,17,17,1,9,198,education
1565,1565,1,10,4,11,198,education
1566,1566,13,5,5,8,128,realestate
1567,1567,6,14,0,23,53,software
1568,1568,3,0,9,26,207,education
1569,1569,8,2,0,18,203,software
1570,1570,17,5,1,3,196,software
1571,1571,0,21,5,27,122,financial
1572,1572,16,18,9,19,148,realestate
1573,1573,3,24,0,13,177,financial
1574,1574,19,2,3,28,102,financial
1575,1575,16,20,1,14,160,pharmaceutical
1576,1576,9,23,8,2,48,realestate
1577,1577,6,17,8,18,55,retail
1578,1578,17,24,4,20,187,retail
1579,1579,2,25,3,27,215,retail
1580,1580,16,4,1,9,158,software
1581,1581,4,1,7,10,194,education
1582,1582,2,10,0,26,217,education
1583,1583,11,29,6,27,116,pharmaceutical
1584,1584,19,7,0,3,73,financial
1585,1585,10,23,4,15,135,realestate
1586,1586,14,2,0,4,187,education
1587,1587,2,1,9,16,214,realestate
1588,1588,16,8,1,29,156,education
1589,1589,2,1,3,7,216,software
1590,1590,18,20,2,29,91,financial
1591,1591,17,2,1,12,191,retail
1592,1592,7,21,7,15,148,financial
1593,1593,1,4,4,16,162,realestate
1594,1594,2,22,0,20,200,software
1595,1595,19,17,4,23,119,retail
1596,1596,0,1,3,10,122,retail
1597,1597,15,16,3,25,190,education
1598,1598,16,11,7,18,156,pharmaceutical
1599,1599,3,17,4,26,185,pharmaceutical
1600,1600,1,27,8,0,164,pharmaceutical
1601,1601,6,6,5,24,69,financial
1602,1602,1,16,7,5,189,pharmaceutical
1603,1603,11,28,6,22,128,pharmaceutical
1604,1604,8,19,6,3,155,realestate
1605,1605,6,4,7,22,56,financial
1606,1606,6,15,1,18,56,financial
1607,1607,15,8,7,19,190,education
1608,1608,9,18,7,0,47,education
1609,1609,19,23,8,15,89,realestate
1610,1610,12,15,5,2,95,software
1611,1611,6,13,2,3,40,pharmaceutical
1612,1612,3,23,5,27,209,realestate
1613,1613,3,6,1,19,209,software
1614,1614,6,18,5,17,57,realestate
1615,1615,3,11,5,14,189,retail
1616,1616,0,27,3,5,123,pharmaceutical
1617,1617,3,21,4,3,194,education
1618,1618,18,13,4,4,82,realestate
1619,1619,2,8,2,14,210,pharmaceutical
1620,1620,16,21,0,15,156,pharmaceutical
1621,1621,1,23,5,26,165,realestate
1622,1622,2,21,3,21,205,education
1623,1623,10,28,6,17,133,financial
1624,1624,3,9,3,6,214,realestate
1625,1625,19,18,5,29,103,retail
1626,1626,17,16,3,2,188,realestate
1627,1627,6,19,6,25,79,software
1628,1628,19,1,6,27,88,realestate
1629,1629,14,11,9,4,186,financial
1630,1630,17,21,6,26,184,realestate
1631,1631,3,21,7,18,191,retail
1632,1632,2,1,8,3,200,retail
1633,1633,0,13,2,6,119,pharmaceutical
1634,1634,16,8,1,5,153,financial
1635,1635,1,15,8,5,236,software
1636,1636,8,20,5,11,182,pharmaceutical
1637,1637,16,26,2,24,146,education
1638,1638,8,29,8,20,121,pharmaceutical
1639,1639,19,10,6,15,99,education
1640,1640,13,13,8,2,97,retail
1641,1641,1,20,6,19,203,software
1642,1642,8,19,4,19,152,pharmaceutical
1643,1643,18,24,8,14,57,pharmaceutical
1644,1644,10,20,0,25,96,software
1645,1645,4,28,1,19,171,education
1646,1646,17,20,3,8,185,realestate
1647,1647,5,29,3,8,137,software
1648,1648,6,0,2,27,52,software
1649,1649,2,10,8,10,203,financial
1650,1650,1,15,2,9,211,pharmaceutical
1651,1651,2,14,1,9,210,realestate
1652,1652,13,20,0,2,102,education
1653,1653,19,5,3,22,90,realestate
1654,1654,19,18,3,25,85,retail
1655,1655,5,16,0,28,95,realestate
1656,1656,13,8,9,8,96,retail
1657,1657,17,14,3,23,200,financial
1658,1658,9,5,3,6,52,pharmaceutical
1659,1659,19,9,4,18,103,software
1660,1660,1,5,8,23,186,retail
1661,1661,15,9,7,11,202,retail
1662,1662,0,7,0,10,120,education
1663,1663,4,14,5,24,157,pharmaceutical
1664,1664,10,15,0,24,147,pharmaceutical
1665,1665,5,3,6,23,111,realestate
1666,1666,14,21,6,23,185,realestate
1667,1667,1,2,7,23,186,realestate
1668,1668,12,18,4,4,88,education
1669,1669,16,8,4,23,155,retail
1670,1670,17,20,5,7,201,realestate
1671,1671,3,19,5,4,199,financial
1672,1672,14,7,5,16,189,pharmaceutical
1673,1673,7,20,6,24,152,software
1674,1674,3,29,8,29,203,realestate
1675,1675,12,10,2,22,108,realestate
1676,1676,3,8,8,1,184,financial
1677,1677,17,3,4,8,200,financial
1678,1678,13,16,9,15,109,education
1679,1679,17,11,9,29,204,financial
1680,1680,14,29,3,0,192,realestate
1681,1681,7,8,6,0,158,pharmaceutical
1682,1682,10,25,2,1,103,software
1683,1683,19,27,2,9,73,pharmaceutical
1684,1684,8,25,8,12,204,financial
1685,1685,14,13,7,11,181,pharmaceutical
1686,1686,14,15,9,5,199,retail
1687,1687,19,15,9,11,71,pharmaceutical
1688,1688,9,1,4,14,86,software
1689,1689,5,28,8,5,135,software
1690,1690,8,23,5,26,148,financial
1691,1691,16,10,9,2,153,realestate
1692,1692,1,12,8,6,165,software
1693,1693,9,24,6,14,53,realestate
1694,1694,1,19,8,23,211,software
1695,1695,7,2,7,3,142,retail
1696,1696,10,26,4,12,92,education
1697,1697,6,24,3,21,84,pharmaceutical
1698,1698,14,3,1,2,190,financial
1699,1699,11,3,6,28,114,financial
1700,1700,15,10,9,26,215,realestate
1701,1701,3,2,6,28,177,realestate
1702,1702,6,14,7,24,38,software
1703,1703,0,27,5,28,122,financial
1704,1704,3,23,3,23,178,financial
1705,1705,10,26,6,23,112,realestate
1706,1706,1,19,3,2,182,software
1707,1707,10,15,4,25,127,realestate
1708,1708,4,6,9,29,155,pharmaceutical
1709,1709,9,28,6,26,92,realestate
1710,1710,13,12,6,24,100,realestate
1711,1711,6,3,6,20,78,realestate
1712,1712,11,15,7,20,104,realestate
1713,1713,17,7,7,27,194,retail
1714,1714,3,8,9,28,203,realestate
1715,1715,11,16,5,16,118,realestate
1716,1716,6,12,7,29,61,financial
1717,1717,1,22,5,4,205,financial
1718,1718,17,8,0,1,193,software
1719,1719,4,25,5,14,167,pharmaceutical
1720,1720,8,10,0,7,161,pharmaceutical
1721,1721,16,22,8,18,161,financial
1722,1722,4,23,9,16,178,realestate
1723,1723,7,23,9,28,126,education
1724,1724,8,19,4,29,170,retail
1725,1725,12,11,1,25,101,software
1726,1726,12,13,0,12,86,education
1727,1727,6,24,2,28,39,pharmaceutical
1728,1728,9,26,9,14,88,financial
1729,1729,3,16,6,20,185,financial
1730,1730,9,15,2,2,69,education
1731,1731,14,17,2,12,187,financial
1732,1732,3,16,9,3,165,financial
1733,1733,11,9,1,21,91,education
1734,1734,9,25,2,5,70,pharmaceutical
1735,1735,9,15,7,26,46,software
1736,1736,1,1,7,23,234,software
1737,1737,6,8,7,23,40,software
1738,1738,19,2,0,21,80,financial
1739,1739,14,4,8,8,194,retail
1740,1740,6,14,8,5,63,financial
1741,1741,1,12,6,7,183,retail
1742,1742,1,13,1,24,224,realestate
1743,1743,8,18,4,9,181,software
1744,1744,13,24,0,28,94,retail
1745,1745,17,8,9,9,191,software
1746,1746,13,7,1,6,86,education
1747,1747,11,24,3,16,112,software
1748,1748,5,12,1,3,107,pharmaceutical
1749,1749,12,25,8,19,87,pharmaceutical
1750,1750,6,1,7,1,56,realestate
1751,1751,11,1,4,28,111,education
1752,1752,14,20,8,12,178,realestate
1753,1753,18,10,7,2,79,education
1754,1754,17,11,3,5,187,financial
1755,1755,14,15,6,23,186,software
1756,1756,7,11,4,23,123,pharmaceutical
1757,1757,13,6,5,14,100,financial
1758,1758,10,10,9,5,156,realestate
1759,1759,17,16,6,3,189,retail
1760,1760,0,17,8,11,123,realestate
1761,1761,19,20,9,19,99,education
1762,1762,3,23,4,20,209,pharmaceutical
1763,1763,8,14,3,17,119,retail
1764,1764,15,6,0,1,211,software
1765,1765,2,12,3,20,209,education
1766,1766,8,7,7,3,196,retail
1767,1767,3,18,7,18,198,financial
1768,1768,3,19,3,17,178,education
1769,1769,11,14,9,25,109,software
1770,1770,17,10,2,18,196,pharmaceutical
1771,1771,9,25,5,4,85,software
1772,1772,14,0,2,25,189,software
1773,1773,15,23,0,23,195,pharmaceutical
1774,1774,17,20,8,2,195,software
1775,1775,4,27,7,20,166,financial
1776,1776,9,13,6,0,71,financial
1777,1777,11,10,0,6,98,realestate
1778,1778,11,24,8,2,120,realestate
1779,1779,16,25,6,28,150,education
1780,1780,10,20,8,6,108,software
1781,1781,12,12,4,24,107,retail
1782,1782,4,8,9,28,174,software
1783,1783,8,13,0,18,148,retail
1784,1784,10,20,3,14,103,software
1785,1785,3,2,8,22,202,education
1786,1786,8,11,3,12,122,pharmaceutical
1787,1787,19,3,8,29,80,education
1788,1788,12,7,9,20,95,realestate
1789,1789,19,29,4,8,113,financial
1790,1790,2,25,4,5,199,retail
1791,1791,15,9,1,2,191,software
1792,1792,6,10,5,20,72,education
1793,1793,8,9,5,28,180,realestate
1794,1794,3,17,7,29,204,financial
1795,1795,0,9,1,29,119,financial
1796,1796,10,27,2,18,152,pharmaceutical
1797,1797,0,12,1,15,123,pharmaceutical
1798,1798,6,0,4,26,42,education
1799,1799,9,29,4,19,81,education
1800,1800,10,26,8,23,147,realestate
1801,1801,16,19,3,4,150,financial
1802,1802,19,22,8,27,92,pharmaceutical
1803,1803,0,21,6,25,120,software
1804,1804,6,1,1,13,51,financial
1805,1805,17,4,2,17,194,financial
1806,1806,17,15,0,22,200,pharmaceutical
1807,1807,10,24,3,0,91,realestate
1808,1808,6,14,3,19,56,retail
1809,1809,19,16,8,15,72,pharmaceutical
1810,1810,2,10,4,16,218,financial
1811,1811,8,16,3,1,128,retail
1812,1812,17,16,6,8,194,financial
1813,1813,4,26,7,10,152,education
1814,1814,15,27,5,27,181,financial
1815,1815,0,29,7,0,121,software
1816,1816,8,28,7,8,166,pharmaceutical
1817,1817,6,7,5,7,41,pharmaceutical
1818,1818,1,18,7,3,158,pharmaceutical
1819,1819,4,9,9,25,155,financial
1820,1820,12,9,9,0,86,realestate
1821,1821,2,29,5,1,201,financial
1822,1822,19,0,3,7,76,retail
1823,1823,5,28,4,22,104,realestate
1824,1824,3,24,0,2,200,pharmaceutical
1825,1825,8,9,8,23,204,software
1826,1826,2,18,8,19,211,software
1827,1827,6,7,1,0,65,realestate
1828,1828,6,29,2,7,58,software
1829,1829,15,1,9,16,187,financial
1830,1830,7,14,3,11,164,retail
1831,1831,0,13,9,3,123,retail
1832,1832,1,5,1,4,213,education
1833,1833,10,15,9,24,147,pharmaceutical
1834,1834,16,29,4,3,148,realestate
1835,1835,17,11,9,12,200,software
1836,1836,11,3,1,25,96,realestate
1837,1837,15,12,5,29,178,software
1838,1838,5,23,6,5,139,realestate
1839,1839,9,5,1,5,43,software
1840,1840,13,28,4,1,96,pharmaceutical
1841,1841,9,22,9,22,44,software
1842,1842,6,21,9,2,55,retail
1843,1843,16,20,3,28,161,realestate
1844,1844,14,26,0,22,186,pharmaceutical
1845,1845,12,2,8,29,89,software
1846,1846,11,0,0,27,114,financial
1847,1847,7,8,3,15,120,education
1848,1848,12,5,3,6,95,education
1849,1849,8,7,2,15,157,education
1850,1850,0,14,0,4,120,software
1851,1851,7,28,3,25,143,retail
1852,1852,3,7,2,27,190,education
1853,1853,10,1,8,26,131,financial
1854,1854,16,16,3,5,149,realestate
1855,1855,11,6,3,15,124,retail
1856,1856,8,17,2,15,119,pharmaceutical
1857,1857,0,29,6,27,119,software
1858,1858,3,13,7,16,183,education
1859,1859,2,4,2,22,208,financial
1860,1860,1,8,4,18,207,financial
1861,1861,9,16,4,6,83,pharmaceutical
1862,1862,7,6,4,23,126,pharmaceutical
1863,1863,11,16,7,18,97,education
1864,1864,4,6,5,25,190,pharmaceutical
1865,1865,17,2,0,10,199,realestate
1866,1866,1,24,2,1,172,realestate
1867,1867,6,17,4,18,44,realestate
1868,1868,1,24,0,19,184,education
1869,1869,11,7,0,25,127,retail
1870,1870,2,6,1,9,218,software
1871,1871,9,0,3,13,82,financial
1872,1872,1,12,0,17,186,education
1873,1873,0,14,9,18,122,realestate
1874,1874,6,0,2,16,61,education
1875,1875,1,16,8,27,212,software
1876,1876,4,1,7,2,161,financial
1877,1877,5,16,1,4,100,retail
1878,1878,12,5,8,28,83,financial
1879,1879,8,26,0,22,146,realestate
1880,1880,3,18,4,18,198,pharmaceutical
1881,1881,1,0,4,17,204,financial
1882,1882,4,6,2,25,132,education
1883,1883,2,29,1,26,209,realestate
1884,1884,17,29,4,9,203,pharmaceutical
1885,1885,0,4,8,22,122,pharmaceutical
1886,1886,18,3,6,20,91,pharmaceutical
1887,1887,7,2,0,22,162,financial
1888,1888,8,13,1,23,155,financial
1889,1889,12,28,7,12,105,pharmaceutical
1890,1890,12,19,5,16,106,software
1891,1891,0,5,3,11,123,retail
1892,1892,16,18,0,28,162,education
1893,1893,9,6,9,11,47,software
1894,1894,6,23,1,14,71,financial
1895,1895,11,1,3,10,125,retail
1896,1896,12,7,6,7,105,education
1897,1897,13,10,8,17,120,education
1898,1898,17,6,8,23,189,financial
1899,1899,10,2,8,4,88,retail
1900,1900,11,17,2,3,111,financial
1901,1901,19,2,8,7,108,retail
1902,1902,15,13,2,28,201,financial
1903,1903,15,3,8,19,219,retail
1904,1904,15,16,0,2,201,realestate
1905,1905,5,14,0,0,93,realestate
1906,1906,0,23,9,28,121,software
1907,1907,5,13,0,11,113,realestate
1908,1908,17,12,6,1,186,financial
1909,1909,1,19,7,19,212,software
1910,1910,14,2,0,20,198,realestate
1911,1911,7,4,6,24,158,education
1912,1912,1,9,2,5,230,software
1913,1913,13,5,9,19,98,education
1914,1914,10,26,7,1,101,realestate
1915,1915,3,29,0,25,216,realestate
1916,1916,17,7,6,10,193,realestate
1917,1917,19,3,9,8,89,education
1918,1918,6,12,4,12,57,financial
1919,1919,0,18,9,19,122,retail
1920,1920,12,17,9,11,79,financial
1921,1921,7,3,9,21,144,software
1922,1922,19,11,7,0,97,retail
1923,1923,4,11,2,23,192,software
1924,1924,11,23,5,21,140,retail
1925,1925,0,1,3,3,123,education
1926,1926,9,29,7,2,85,software
1927,1927,7,10,4,13,133,financial
1928,1928,8,29,9,13,145,pharmaceutical
1929,1929,18,6,2,14,75,retail
1930,1930,10,29,0,13,148,financial
1931,1931,0,15,2,23,123,education
1932,1932,7,17,4,1,131,education
1933,1933,2,18,8,21,203,education
1934,1934,12,14,7,8,110,financial
1935,1935,11,27,9,7,95,education
1936,1936,13,20,4,5,127,education
1937,1937,12,7,2,1,95,education
1938,1938,13,23,1,16,115,retail
1939,1939,18,4,4,21,71,education
1940,1940,0,27,9,1,122,education
1941,1941,6,10,2,20,73,pharmaceutical
1942,1942,14,4,9,5,183,education
1943,1943,6,13,0,6,45,pharmaceutical
1944,1944,17,0,4,1,190,realestate
1945,1945,11,2,4,24,108,financial
1946,1946,1,13,0,23,231,software
1947,1947,0,2,2,2,121,education
1948,1948,13,6,0,20,100,education
1949,1949,7,8,2,23,128,realestate
1950,1950,9,21,5,23,99,financial
1951,1951,16,13,2,16,153,software
1952,1952,7,26,4,7,122,education
1953,1953,10,14,2,28,91,education
1954,1954,0,29,7,14,121,software
1955,1955,6,5,7,28,66,education
1956,1956,6,23,3,25,76,realestate
1957,1957,0,14,5,0,123,realestate
1958,1958,2,13,6,0,200,retail
1959,1959,0,5,3,0,120,education
1960,1960,12,9,8,24,108,software
1961,1961,11,19,1,12,122,software
1962,1962,1,25,2,13,192,education
1963,1963,10,27,3,9,124,software
1964,1964,12,0,7,29,90,financial
1965,1965,16,8,5,16,151,retail
1966,1966,1,2,7,8,160,education
1967,1967,16,28,9,17,154,realestate
1968,1968,14,11,1,11,188,retail
1969,1969,5,15,7,0,109,retail
1970,1970,16,11,3,9,151,education
1971,1971,2,28,7,20,213,software
1972,1972,0,28,2,22,122,pharmaceutical
1973,1973,8,19,3,19,136,education
1974,1974,11,9,8,14,119,realestate
1975,1975,18,4,8,9,103,software
1976,1976,11,4,5,3,117,pharmaceutical
1977,1977,4,21,1,4,150,pharmaceutical
1978,1978,19,11,0,23,116,financial
1979,1979,11,17,5,29,133,pharmaceutical
1980,1980,12,10,8,10,89,realestate
1981,1981,12,22,3,27,96,retail
1982,1982,17,25,5,15,192,financial
1983,1983,7,15,4,5,143,realestate
1984,1984,6,5,2,20,75,retail
1985,1985,10,15,0,8,93,realestate
1986,1986,16,16,9,22,148,software
1987,1987,14,20,3,2,183,software
1988,1988,9,6,4,13,77,software
1989,1989,19,28,7,23,71,financial
1990,1990,7,18,1,25,149,education
1991,1991,14,14,9,1,199,financial
1992,1992,5,1,8,11,136,software
1993,1993,9,26,3,17,70,education
1994,1994,17,13,8,22,188,financial
1995,1995,11,1,7,0,137,pharmaceutical
1996,1996,5,4,6,7,100,software
1997,1997,2,6,2,14,205,pharmaceutical
1998,1998,18,27,5,15,95,realestate
1999,1999,15,0,1,14,181,education
